Partial table data download • cansim
…
bp_template_filtered <- bp_template %>%
  filter(Geography %in% c("Toronto, Ontario", "Montréal, Quebec", "Vancouver, British Columbia", "Calgary, Alberta"),
         `Type of building` %in% c("Total residential","Total demolitions"),
         `Type of work` %in% c("Demolitions for residential dwellings","Deconversion total","Conversions total","New dwelling units total"),
         Variables %in% c("Number of dwelling-units created", "Number of dwelling-units lost", "Number of dwelling-units demolished"),
         `Seasonal adjustment, value type` == "Unadjusted, current"
  )

bp_template_filtered
#> # A tibble: 96 × 7
#>    cansimTableNumber COORDINATE  Geography     `Type of building` `Type of work`
#>    <chr>             <chr>       <chr>         <chr>              <chr>         
#>  1 34-10-0285        24.4.3.2.1  Montréal, Qu… Total residential  New dwelling …
#>  2 34-10-0285        24.4.3.3.1  Montréal, Qu… Total residential  New dwelling …
#>  3 34-10-0285        24.4.3.4.1  Montréal, Qu… Total residential  New dwelling …
#>  4 34-10-0285        24.4.16.2.1 Montréal, Qu… Total residential  Conversions t…
#>  5 34-10-0285        24.4.16.3.1 Montréal, Qu… Total residential  Conversions t…
#>  6 34-10-0285        24.4.16.4.1 Montréal, Qu… Total residential  Conversions t…
#>  7 34-10-0285        24.4.20.2.1 Montréal, Qu… Total residential  Deconversion …
#>  8 34-10-0285        24.4.20.3.1 Montréal, Qu… Total residential  Deconversion …
#>  9 34-10-0285        24.4.20.4.1 Montréal, Qu… Total residential  Deconversion …
#> 10 34-10-0285        24.4.24.2.1 Montréal, Qu… Total residential  Demolitions f…
#> # ℹ 86 more rows
#> # ℹ 2 more variables: Variables <chr>, `Seasonal adjustment, value type` <chr>
…
bp_data <- get_cansim_data_for_table_coord_periods(bp_template_filtered)
#> Accessing CANSIM NDM coordinates from Statistics Canada
#> Could not access data for 80 coordinates, see attr(<result>, 'failed_coordinates') for details.
#> This occurs when combinations of coordinates aren't available in the data table, values can safely be assumed to be NA.

bp_data
#> # A tibble: 1,568 × 17
#>    REF_DATE   Date       GEO         `Type of building` `Type of work` Variables
#>    <chr>      <date>     <fct>       <fct>              <fct>          <fct>    
#>  1 2017-01-01 2017-01-01 Montréal, … Total demolitions  Demolitions f… Number o…
#>  2 2017-02-01 2017-02-01 Montréal, … Total demolitions  Demolitions f… Number o…
#>  3 2017-03-01 2017-03-01 Montréal, … Total demolitions  Demolitions f… Number o…
#>  4 2017-04-01 2017-04-01 Montréal, … Total demolitions  Demolitions f… Number o…
#>  5 2017-05-01 2017-05-01 Montréal, … Total demolitions  Demolitions f… Number o…
#>  6 2017-06-01 2017-06-01 Montréal, … Total demolitions  Demolitions f… Number o…
#>  7 2017-07-01 2017-07-01 Montréal, … Total demolitions  Demolitions f… Number o…
#>  8 2017-08-01 2017-08-01 Montréal, … Total demolitions  Demolitions f… Number o…
#>  9 2017-09-01 2017-09-01 Montréal, … Total demolitions  Demolitions f… Number o…
#> 10 2017-10-01 2017-10-01 Montréal, … Total demolitions  Demolitions f… Number o…
#> # ℹ 1,558 more rows
#> # ℹ 11 more variables: `Seasonal adjustment, value type` <fct>, VALUE <dbl>,
#> #   val_norm <dbl>, SCALAR_ID <int>, VECTOR <chr>, cansimTableNumber <chr>,
#> #   COORDINATE <chr>, SYMBOL <int>, releaseTime <chr>, frequencyCode <int>,
#> #   DECIMALS <int>
…
