Working with large tables • cansim
…
Keeping track of cached data

Since we now have the option of a more permanent cache we should take
care to manage that space properly. The
list_cansim_sqlite_cached_tables function gives us an
overview over the cached data we have.

list_cansim_cached_tables()
#> # A tibble: 67 × 10
#>    cansimTableNumber language dataFormat timeCached          niceSize  rawSize
#>    <chr>             <chr>    <chr>      <dttm>              <chr>       <dbl>
#>  1 11-10-0004        eng      parquet    2025-07-18 22:22:12 1.8 Mb    1884578
#>  2 11-10-0008        eng      parquet    2025-07-18 23:12:15 14.4 Mb  15047191
#>  3 11-10-0009        eng      parquet    2025-07-18 22:06:31 2 Mb      2125776
#>  4 11-10-0009        eng      sqlite     1900-01-01 01:00:00 NA             NA
#>  5 11-10-0017        eng      parquet    2025-02-11 11:49:21 9.3 Mb    9767494
#>  6 11-10-0047        eng      parquet    2025-07-15 14:44:05 918 Kb     940072
#>  7 11-10-0191        eng      parquet    2025-05-01 13:48:11 12.5 Mb  13142229
#>  8 11-10-0223        eng      parquet    2025-05-21 13:12:41 4.2 Mb    4404277
#>  9 11-10-0239        eng      parquet    2025-07-18 22:30:23 27.7 Mb  29072464
#> 10 13-10-0418        eng      parquet    2025-06-22 15:37:38 18.9 Kb     19367
#> # ℹ 57 more rows
#> # ℹ 4 more variables: title <chr>, path <chr>, timeReleased <dttm>,
#> #   upToDate <lgl>
…
